{
    "KPlugin": {
        "Category": "Utilities",
        "Description": "Configure which style should be used for formatting of the sourcecode in a project.",
        "Description[az]": "Layihədəki qaynaq kodunun formatlanması üçün hansı üslubdan istifadə edilməli olduğunu tənzimləyin.",
        "Description[ca@valencia]": "Configura quin estil s'ha d'utilitzar per a donar format al codi font d'un projecte.",
        "Description[ca]": "Configura quin estil s'ha d'usar per a donar format al codi font d'un projecte.",
        "Description[de]": "Einstellung des Formatierungsstils für den Quelltext in einem Projekt.",
        "Description[el]": "Διαμορφώνει το στιλ για τη μορφή του πηγαίου κώδικα σε ένα έργο.",
        "Description[en_GB]": "Configure which style should be used for formatting of the sourcecode in a project.",
        "Description[eo]": "Agordu kiu stilo estu uzata por formatado de la fontkodo en projekto.",
        "Description[es]": "Configurar el estilo que se debe usar para formatear el código fuente de un proyecto.",
        "Description[et]": "Seadistamine, millist stiili kasutada projekti lähtekoodi vormindamisel.",
        "Description[eu]": "Konfiguratu, proiektu batean, sorburu-kodeari formatua emateko erabili beharreko estiloa.",
        "Description[fr]": "Configurer le style de formatage du code source dans les projets.",
        "Description[gl]": "Configurar o estilo para usar para formatar o código fonte nun proxecto.",
        "Description[it]": "Configura lo stile che sarà usato per formattare il codice sorgente in un progetto.",
        "Description[ko]": "프로젝트 소스 코드에 적용할 스타일 형식을 설정합니다.",
        "Description[nl]": "Configureer welke stijl gebruikt moet worden voor formattering van de broncode in een project.",
        "Description[pl]": "Określa wygląd stosowany do formatowania kodu źródłowego w projekcie.",
        "Description[pt]": "Configure o estilo que deverá ser usado na formatação do código-fonte num projecto.",
        "Description[pt_BR]": "Configura o estilo que deverá ser usado na formatação do código-fonte em um projeto.",
        "Description[ru]": "Настройка стиля, который будет использоваться для форматирования исходного кода в проекте",
        "Description[sk]": "Nastavte, aký štýl sa má použiť na formátovanie zdrojového kódu v projekte.",
        "Description[sl]": "Nastavite, kateri slog naj bo v projektu uporabljen za oblikovanje izvorne kode.",
        "Description[sv]": "Anpassa vilken stil som ska användas för att formatera källkoden i ett projekt.",
        "Description[tr]": "Bir projedeki kaynak kodun biçimlendirilmesi için hangi biçemin kullanılması gerektiğini yapılandırın.",
        "Description[uk]": "Налаштувати стиль, який буде використано для форматування початкового коду у проєкті.",
        "Description[x-test]": "xxConfigure which style should be used for formatting of the sourcecode in a project.xx",
        "Description[zh_CN]": "配置工程中源代码应使用哪个样式进行格式化。",
        "Icon": "text-field",
        "Id": "kdevsourceformatter",
        "Name": "Source Formatter",
        "Name[az]": "Mənbə formatlayıcı",
        "Name[bg]": "Форматиращ модул за програмен текст",
        "Name[ca@valencia]": "Formatador del codi font",
        "Name[ca]": "Formatador del codi font",
        "Name[cs]": "Formátovač zdroje",
        "Name[da]": "Formatering af kildekode",
        "Name[de]": "Quelltextformatierer",
        "Name[el]": "Διαμορφωτής πηγαίου κώδικα",
        "Name[en_GB]": "Source Formatter",
        "Name[eo]": "Fontformanto",
        "Name[es]": "Formateador de código fuente",
        "Name[et]": "Lähtekoodi vormindaja",
        "Name[eu]": "Sorburu eratzailea",
        "Name[fr]": "Formateur de sources",
        "Name[gl]": "Formatador de código",
        "Name[hu]": "Forrásformázó",
        "Name[it]": "Formattatore sorgenti",
        "Name[ka]": "წყაროს ფორმატირება",
        "Name[kk]": "Бастапқы код пішімдеуіші",
        "Name[ko]": "소스 코드 형식 적용 도구",
        "Name[nb]": "Kildeformattering",
        "Name[nds]": "Bornformateren",
        "Name[nl]": "Broncode-formatteerprogramma",
        "Name[pl]": "Formatowanie źródeł",
        "Name[pt]": "Formatação de Código",
        "Name[pt_BR]": "Formatador de código",
        "Name[ru]": "Форматирование кода",
        "Name[sk]": "Formátovač zdroja",
        "Name[sl]": "Oblikovalnik izvorne kode",
        "Name[sv]": "Källkodsformatering",
        "Name[tr]": "Kaynak Biçimlendirici",
        "Name[ug]": "مەنبەنى پىچقۇچ",
        "Name[uk]": "Форматування коду",
        "Name[x-test]": "xxSource Formatterxx",
        "Name[zh_CN]": "源代码格式化器",
        "Name[zh_TW]": "源碼格式器"
    },
    "X-KDevelop-Category": "Project",
    "X-KDevelop-LoadMode": "AlwaysOn",
    "X-KDevelop-Mode": "GUI"
}
